<svg xmlns="http://www.w3.org/2000/svg" width="14" height="14" viewBox="0 0 14 14">
    <path fill="#e85e4a" fill-rule="evenodd" d="M0 7c0 3.864 3.136 7 7 7s7-3.136 7-7-3.136-7-7-7-7 3.136-7 7zm6.2-2.844a.84.84 0 0 1 .202-.568c.139-.16.34-.238.595-.238.254 0 .457.078.597.237a.832.832 0 0 1 .206.57c0 .223-.07.414-.207.564-.141.154-.343.229-.596.229-.254 0-.455-.075-.594-.23a.816.816 0 0 1-.203-.564zM7 5.65a.7.7 0 0 1 .7.7v3.6a.7.7 0 0 1-1.4 0v-3.6a.7.7 0 0 1 .7-.7z"/>
</svg>
