<svg xmlns="http://www.w3.org/2000/svg" width="14" height="14" viewBox="0 0 14 14">
    <g fill="none" fill-rule="evenodd">
        <path fill="none" d="M0 0h14v14H0z"/>
        <path fill="#e85e4a" fill-rule="nonzero" d="M.228 9.444L7 2.844l6.834 6.6-1.592 1.665L7 6.03l-5.173 5.08z"/>
    </g>
</svg>
